New Folder/dumpfile.vcd
$date
	Sun Feb 25 23:44:39 2024
$end
$version
	Icarus Verilog
$end
$timescale
	1ps
$end
$scope module lsfr_tb $end
$var wire 4 ! out_tb [3:0] $end
$var reg 1 " clk_tb $end
$var reg 1 # rst_tb $end
$scope module DUT $end
$var wire 1 " clk $end
$var wire 1 $ feedback $end
$var wire 1 # rst $end
$var reg 4 % out [3:0] $end
$upscope $end
$upscope $end
$enddefinitions $end
#15000
$dumpvars
b1 %
1$
0#
1"
b1 !
$end
#20000
0"
#25000
b11 !
b11 %
1"
#30000
0"
#35000
0$
b111 !
b111 %
1"
#40000
0"
#45000
1$
b1110 !
b1110 %
1"
#50000
0"
#55000
b1101 !
b1101 %
1"
#60000
0"
#65000
0$
b1011 !
b1011 %
1"
#70000
0"
#75000
b110 !
b110 %
1"
#80000
0"
#85000
1$
b1100 !
b1100 %
1"
#90000
0"
#95000
0$
b1001 !
b1001 %
1"
#100000
0"
#105000
1$
b10 !
b10 %
1"
#110000
0"
#115000
0$
b101 !
b101 %
1"
#120000
0"
#125000
b1010 !
b1010 %
1"
#130000
0"
#135000
b100 !
b100 %
1"
#140000
0"
#145000
b1000 !
b1000 %
1"
#150000
0"
#155000
1$
b0 !
b0 %
1"
#160000
0"
#165000
b1 !
b1 %
1"
#170000
0"
#175000
b11 !
b11 %
1"
#180000
0"
#185000
0$
b111 !
b111 %
1"
#190000
0"
#195000
1$
b1110 !
b1110 %
1"
#200000
0"
#205000
b1101 !
b1101 %
1"
#210000
0"
#215000
0$
b1011 !
b1011 %
1"
#220000
0"
#225000
b110 !
b110 %
1"
